0-5_5-2_ 0.6 ntrk 0
+-----------+--------------------+-------------+-------------+------------+
|  Pt(GeV)  | Quark Scale Factor | Uncertainty | Statistical | MC closure |
+-----------+--------------------+-------------+-------------+------------+
|  500-600  |      1.02574       |   0.00094   |   0.00094   |  0.15203   |
|  600-800  |      1.02588       |   0.00111   |   0.00111   |  0.11771   |
|  800-1000 |      1.02665       |   0.00236   |   0.00236   |  0.09589   |
| 1000-1200 |      1.01292       |    0.0047   |    0.0047   |   0.0794   |
| 1200-1500 |      1.00519       |   0.00784   |   0.00784   |  0.06045   |
+-----------+--------------------+-------------+-------------+------------+
+-----------+--------------------+-------------+-------------+------------+
|  Pt(GeV)  | Gluon Scale Factor | Uncertainty | Statistical | MC closure |
+-----------+--------------------+-------------+-------------+------------+
|  500-600  |      1.02924       |   0.00109   |   0.00109   |  0.18716   |
|  600-800  |      1.02044       |   0.00151   |   0.00151   |   0.1748   |
|  800-1000 |      1.00081       |   0.00389   |   0.00389   |  0.19013   |
| 1000-1200 |      0.95765       |   0.00831   |   0.00831   |  0.16203   |
| 1200-1500 |      0.91058       |   0.01713   |   0.01713   |  0.14661   |
+-----------+--------------------+-------------+-------------+------------+