0-5_10-15_ 0.5 ntrk 0
+-----------+--------------------+-------------+-------------+------------+
|  Pt(GeV)  | Quark Scale Factor | Uncertainty | Statistical | MC closure |
+-----------+--------------------+-------------+-------------+------------+
|  500-600  |      1.00598       |   0.00168   |   0.00168   |  0.13317   |
|  600-800  |      1.02025       |   0.00207   |   0.00207   |  0.10642   |
|  800-1000 |      1.02711       |   0.00397   |   0.00397   |  0.08505   |
| 1000-1200 |      1.00242       |   0.00668   |   0.00668   |   0.0585   |
| 1200-1500 |      1.00602       |    0.0105   |    0.0105   |  0.04621   |
+-----------+--------------------+-------------+-------------+------------+
+-----------+--------------------+-------------+-------------+------------+
|  Pt(GeV)  | Gluon Scale Factor | Uncertainty | Statistical | MC closure |
+-----------+--------------------+-------------+-------------+------------+
|  500-600  |      1.00603       |   0.00143   |   0.00143   |   0.1196   |
|  600-800  |      1.00663       |   0.00183   |   0.00183   |  0.12339   |
|  800-1000 |      0.99913       |    0.0045   |    0.0045   |  0.15378   |
| 1000-1200 |      0.95435       |   0.00941   |   0.00941   |  0.12515   |
| 1200-1500 |      0.91435       |   0.01935   |   0.01935   |  0.12742   |
+-----------+--------------------+-------------+-------------+------------+