0-5_5-2_ 0.6 bdt 0
+-----------+--------------------+-------------+-------------+------------+
|  Pt(GeV)  | Quark Scale Factor | Uncertainty | Statistical | MC closure |
+-----------+--------------------+-------------+-------------+------------+
|  500-600  |      1.01869       |   0.00095   |   0.00095   |   0.0577   |
|  600-800  |      1.02152       |    0.0011   |    0.0011   |  0.05557   |
|  800-1000 |       1.0216       |   0.00248   |   0.00248   |  0.05729   |
| 1000-1200 |       1.0066       |   0.00477   |   0.00477   |  0.04122   |
| 1200-1500 |      1.00465       |   0.00775   |   0.00775   |   0.0338   |
+-----------+--------------------+-------------+-------------+------------+
+-----------+--------------------+-------------+-------------+------------+
|  Pt(GeV)  | Gluon Scale Factor | Uncertainty | Statistical | MC closure |
+-----------+--------------------+-------------+-------------+------------+
|  500-600  |      1.02998       |    0.0009   |    0.0009   |  0.07081   |
|  600-800  |      1.02081       |   0.00128   |   0.00128   |  0.08431   |
|  800-1000 |      1.00662       |   0.00334   |   0.00334   |  0.11013   |
| 1000-1200 |      0.97231       |   0.00748   |   0.00748   |  0.09137   |
| 1200-1500 |      0.94556       |   0.01497   |   0.01497   |    0.09    |
+-----------+--------------------+-------------+-------------+------------+