 0.5 ntrk 0
+-----------+--------------------+-------------+-------------+------------+
|  Pt(GeV)  | Quark Scale Factor | Uncertainty | Statistical | MC closure |
+-----------+--------------------+-------------+-------------+------------+
|  500-600  |      1.03916       |   0.00092   |   0.00092   |  0.17112   |
|  600-800  |      1.03634       |   0.00114   |   0.00114   |  0.13616   |
|  800-1000 |      1.03113       |   0.00251   |   0.00251   |  0.11941   |
| 1000-1200 |      1.00925       |   0.00535   |   0.00535   |  0.09422   |
| 1200-1500 |      1.00751       |   0.00869   |   0.00869   |   0.083    |
+-----------+--------------------+-------------+-------------+------------+
+-----------+--------------------+-------------+-------------+------------+
|  Pt(GeV)  | Gluon Scale Factor | Uncertainty | Statistical | MC closure |
+-----------+--------------------+-------------+-------------+------------+
|  500-600  |      1.02894       |   0.00079   |   0.00079   |  0.17046   |
|  600-800  |      1.02058       |   0.00117   |   0.00117   |  0.16317   |
|  800-1000 |      0.99966       |   0.00328   |   0.00328   |  0.17293   |
| 1000-1200 |      0.95827       |    0.0075   |    0.0075   |  0.14142   |
| 1200-1500 |      0.92873       |   0.01587   |   0.01587   |  0.14628   |
+-----------+--------------------+-------------+-------------+------------+