Pt(GeV),Gluon Scale Factor,Uncertainty,Statistical,MC closure,Hardonization,Showering,PDF,Scale Variation
500-600,1.03979,0.19166,0.00075,0.07487,0.02108,0.17505,0.00421,0.00376
600-800,1.03136,0.18822,0.00115,0.08974,0.01229,0.1648,0.00392,0.00562
800-1000,1.01526,0.2278,0.00314,0.10885,0.00593,0.19978,0.00333,0.00804
1000-1200,0.97187,0.21402,0.00732,0.09191,0.00931,0.19262,0.00356,0.00914
1200-1500,0.92831,0.21867,0.01531,0.08711,0.00313,0.1996,0.00404,0.01038
1500-2000,0.913,0.29236,0.04851,0.11289,0.00082,0.26451,0.00546,0.01435
