HLT_j0_perf_L1RD0_FILLED 8753.56e-9 2.
HLT_j25    12065.4e-9  35.
HLT_j35    67271e-9    55.
HLT_j45    656.186e-6  85.
HLT_j60    1391.01e-6 100.
HLT_j85    6865.97e-6 116.
HLT_j110   20.2962e-3 152.
HLT_j175   148.101e-3 216.
HLT_j260   939.19e-3  318.
HLT_j360   4.78368    478.
HLT_j420   58.4501    516. 
HLT_j15_320eta490   19738.7e-9  35.
HLT_j25_320eta490   143.927e-6  45.
HLT_j35_320eta490   740.898e-6  55.
HLT_j45_320eta490   3766.58e-6  85.
HLT_j60_320eta490   8657.14e-6 100.
HLT_j85_320eta490   48.8531e-3 116.
HLT_j110_320eta490  223.118e-3 134.
HLT_j175_320eta490  5.63319    240.
HLT_j260_320eta490  58.4501    346.